{
    "version": "https://jsonfeed.org/version/1",
    "title": "Invisalign Surrey",
    "description": "",
    "home_page_url": "https://automaniacmrk.gitlab.io/invisalignsurrey",
    "feed_url": "https://automaniacmrk.gitlab.io/invisalignsurrey/feed.json",
    "user_comment": "",
    "author": {
        "name": "Dentist"
    },
    "items": [
        {
            "id": "https://automaniacmrk.gitlab.io/invisalignsurrey/what-is-the-invisalign-system.html",
            "url": "https://automaniacmrk.gitlab.io/invisalignsurrey/what-is-the-invisalign-system.html",
            "title": "What is the Invisalign system?",
            "summary": "What is the Invisalign difference? Invisalign has many advantages over traditional metal braces. Invisalign uses a series custom-made aligners that are almost invisible to straighten your teeth. Invisalign braces are comfortable to wear, having no wires or metal brackets. You can also remove your aligners&hellip;",
            "content_html": "<h2>What is the Invisalign difference?</h2>\n<p>Invisalign has many advantages over traditional metal braces.</p>\n<p>Invisalign uses a series custom-made aligners that are almost invisible to straighten your teeth.</p>\n<p>Invisalign braces are comfortable to wear, having no wires or metal brackets. You can also remove your aligners so eating, flossing, and brushing are all possible.</p>\n<p>You can still enjoy your favorite foods and smile without holding back. Invisalign is a great option!</p>\n<p>Invisalign is proven to be effective both in clinical research as well as in practice.</p>\n<p>Invisalign can give you new reasons to smile, no matter if your teeth have moved or are too close together.</p>\n<p><img loading=\"lazy\" src=\"https://www.cloverdaledentalclinic.com/files/invisalign-clear-braces-surrey-dentist-1.jpg\" data-is-external-image=\"true\"  alt=\"Invisalign Surrey\" data-cke-saved-src=\" https://www.cloverdaledentalclinic.com/files/invisalign-clear-braces-surrey-dentist-1.jpg\"></p>\n<h2>What is the Invisalign system?</h2>\n<p>Invisalign is an invisible method to straighten your smile and give you the smile of your dreams. Invisalign treatment uses advanced 3D computer imaging technology to depict your complete treatment plan, from the initial position of your teeth to the final desired position.</p>\n<p>A series of clear aligners is then custom-made to your teeth. These are used to gradually move your teeth. The aligners are worn for approximately two weeks, then the next one is replaced until your final teeth position is reached.</p>\n<p>Your <a href=\"https://www.angelcaredental.com/service/invisalign/\">Invisalign treatment time</a> will be determined by your doctor based on your specific needs.</p>\n<h2>What is the difference between Invisalign and other types of braces?</h2>\n<p>Invisalign clear braces can be removed, unlike traditional braces. We use software to make a series of bespoke aligners for you which are replaced every two or three weeks, as your teeth move closer to their new position.</p>\n<p>It's important that you wear the aligners consistently so they can work effectively. While they can be removed for brushing or eating, you should not remove them from your mouth for long periods of time.</p>\n<p>The number of aligners you'll need depends on how much work needs to be done to arrive at a solution that's right for you. Once your treatment is finished you'll need to use a removable retainer to keep your teeth in the correct position.</p>",
            "author": {
                "name": "Dentist"
            },
            "tags": [
            ],
            "date_published": "2022-06-24T08:14:17-07:00",
            "date_modified": "2022-07-05T07:41:42-07:00"
        },
        {
            "id": "https://automaniacmrk.gitlab.io/invisalignsurrey/what-is-the-invisalign-process.html",
            "url": "https://automaniacmrk.gitlab.io/invisalignsurrey/what-is-the-invisalign-process.html",
            "title": "What is the Invisalign process?",
            "summary": "At your initial examination at our Angel Care Dental, our dentists will decide if Invisalign is right for you. If you are a good candidate for Invisalign in Surrey, you will receive a detailed treatment plan (and Invisalign cost estimate). The dentist will take photographs&hellip;",
            "content_html": "<p><img loading=\"lazy\" src=\"https://dentistsofchimneyheights.com/assets/images/slider/slide-invisalign.jpg\" data-is-external-image=\"true\"  alt=\"Invisalign Surrey\" data-cke-saved-src=\" https://dentistsofchimneyheights.com/assets/images/slider/slide-invisalign.jpg\"></p>\n<h2>What is the Invisalign process?</h2>\n<p>At your initial examination at our Angel Care Dental, our dentists will decide if Invisalign is right for you. If you are a <a href=\"https://www.angelcaredental.com/service/invisalign/\">good candidate for Invisalign in Surrey</a>, you will receive a detailed treatment plan (and Invisalign cost estimate).</p>\n<p>The dentist will take photographs and impressions of your teeth, and then send them to Align Technologies Headquarters in San Jose. There, 3-D computer technology carefully transforms your doctor's instructions into a series of precisely customized aligners.</p>\n<p>You then wear each set of aligners for about two weeks, moving your teeth gradually - week by week, millimeter by millimeter - until you've achieved the intended result: straight teeth. You will see your dentist less often with aligners than with braces, and treatment takes about the same time.</p>\n<h2>Angel Care Dental  Services</h2>\n<p>A great smile and healthy properly functioning jaw begins with high quality orthodontics care at our Angel Care Dental in Grandview Corners. Are you satisfied with the appearance of your smile despite taking great care with brushing and flossing? Or do you or your child suffer from chronic headaches caused by a misaligned jaw? Our Orthodontists at Viva Orthodontics and their team of specialists are experts in this area and will create a customized treatment for you.</p>",
            "author": {
                "name": "Dentist"
            },
            "tags": [
            ],
            "date_published": "2022-06-24T08:13:42-07:00",
            "date_modified": "2022-07-04T19:55:57-07:00"
        },
        {
            "id": "https://automaniacmrk.gitlab.io/invisalignsurrey/length-of-invisalign-treatment.html",
            "url": "https://automaniacmrk.gitlab.io/invisalignsurrey/length-of-invisalign-treatment.html",
            "title": "Length Of Invisalign Treatment",
            "summary": "Invisalign treatment could take as little as six months to correct something simple. But often, treatment lasts 12-18 months (usually faster than with metal braces), especially when more than one tooth is involved or when a tooth is well out of alignment. Sometimes, the process&hellip;",
            "content_html": "<p><img loading=\"lazy\" src=\"https://kgdental.ca/wp-content/uploads/2020/03/Invisalign.jpg\" data-is-external-image=\"true\"  alt=\"Invisalign Surrey\" data-cke-saved-src=\" https://kgdental.ca/wp-content/uploads/2020/03/Invisalign.jpg\"></p>\n<h2>Length Of Invisalign Treatment</h2>\n<p>Invisalign treatment could take as little as six months to correct something simple. But often, treatment lasts 12-18 months (usually faster than with metal braces), especially when more than one tooth is involved or when a tooth is well out of alignment. Sometimes, the process can take even longer. The cost of Invisalign depends primarily on how long it takes to correct your orthodontic condition.</p>\n<p>Much of that time depends on the complexity of the job. It could depend upon you. You are responsible for your jaw, gums and teeth. No two individuals are exactly the same. Different people move differently, some are more efficient than others and some have a greater ability to move in one direction.</p>\n<p><a href=\"https://www.angelcaredental.com/service/invisalign/\">Invisalign prices in Surrey</a> will vary depending on how long you have been treated.</p>\n<p>With no visible braces, you can look natural throughout the teeth-straightening process. It won't even cost you more. It's a win-win situation for your teeth and your wallet.</p>\n<p>The price becomes even more affordable when considering the capable hands that will be working on your teeth. Two of the best dentists in Surrey and Metro Vancouver are Dr. San Bhatha, and Dr. Aman Dahaliwal.</p>\n<h2>Smile Design</h2>\n<p>Every patient has different needs and treatments. It is therefore important that we take the time to create the right plan.</p>\n<p>Our diagnostic planning includes 3D digital scanning and model simulation so we can see the final predicted result before we start tooth movements.</p>\n<p>Dr. Patel will examine your teeth and take 3D scans of your mouth to create your smile. He will consider the following features:</p>\n<ul>\n<li>Symmetry between your front and back teeth</li>\n<li>Your teeth's straightness, e.g. Not too close together, not too far apart or crooked.</li>\n<li>Tooth ratio</li>\n<li>Colour of your teeth</li>\n<li>Spaces between the tips of your teeth</li>\n<li>Smile wide</li>\n<li>Gum health, gum line</li>\n<li>Lips can be shaped, coloured and full.</li>\n</ul>",
            "author": {
                "name": "Dentist"
            },
            "tags": [
            ],
            "date_published": "2022-06-24T08:12:43-07:00",
            "date_modified": "2022-07-03T20:59:55-07:00"
        },
        {
            "id": "https://automaniacmrk.gitlab.io/invisalignsurrey/invisalign-teeth-straightening.html",
            "url": "https://automaniacmrk.gitlab.io/invisalignsurrey/invisalign-teeth-straightening.html",
            "title": "Invisalign Teeth Straightening",
            "summary": "Invisalign Teeth Straightening Dentist supported treatment Support if there are issues mid-treatment Reshape your teeth for free A dentist can fit braces Our aligners are not sent to you by post. Quality &amp; fit check is done by us in surgery There are no impressions&hellip;",
            "content_html": "<h2><img loading=\"lazy\" src=\"https://www.guildfordheightsdental.com/files/invisalign-surrey-benefits-braces.jpg\" data-is-external-image=\"true\"  alt=\"Invisalign Surrey\" data-cke-saved-src=\" https://www.guildfordheightsdental.com/files/invisalign-surrey-benefits-braces.jpg\"></h2>\n<h2>Invisalign Teeth Straightening</h2>\n<ul>\n<li>Dentist supported treatment</li>\n<li>Support if there are issues mid-treatment</li>\n<li>Reshape your teeth for free</li>\n<li>A dentist can fit braces</li>\n<li>Our aligners are not sent to you by post.</li>\n<li>Quality &amp; fit check is done by us in surgery</li>\n<li>There are no impressions necessary</li>\n<li>Distinctive &amp; almost invisible</li>\n<li>Get Quick</li>\n<li>Removable</li>\n<li>No extractions required</li>\n<li>One arch, or both</li>\n<li>The treatment takes 10 to 36 weeks approx.</li>\n<li>Free consultation &amp; smile outcome scan</li>\n<li>Free whitening</li>\n<li>Complementary bonding</li>\n<li>Finance options available T&amp;Cs</li>\n<li>We are Not \"Braces Direct\"</li>\n</ul>\n<h2>Insurance Coverage</h2>\n<p><a href=\"https://www.angelcaredental.com/service/invisalign/\">Surrey Invisalign costs vary</a> from province to province, and so do the insurance options. Surrey, B.C. The provincial coverage for dental care does not include teeth realignment. You will need to check your supplemental insurance policy to determine if your Invisalign costs are covered.</p>\n<p>Supplemental dental or supplemental healthcare insurance may cover you or part of your treatment. There is a chance you can get a large portion of your Invisalign costs back if you have access to a savings account for health care. In such cases, we can usually bill your insurance company directly, and you won't have to worry about paying any part covered by insurance. Only the portion of your treatment cost not covered by dental insurance will you be responsible for.</p>\n<p>If necessary, talk to us about a payment plan. As we do everything to make sure that your cash flows as smooth as possible, we will also try our best to coordinate the billings with your smile. This means that you will pay for your treatment monthly over the course of treatment. PayBright is an external partner that helps us manage our payment plans and pay in installments.</p>\n<p>You can pay for treatment by credit card or debit card.</p>",
            "author": {
                "name": "Dentist"
            },
            "tags": [
            ],
            "date_published": "2022-06-24T08:11:42-07:00",
            "date_modified": "2022-07-04T08:53:32-07:00"
        },
        {
            "id": "https://automaniacmrk.gitlab.io/invisalignsurrey/invisalign-surrey.html",
            "url": "https://automaniacmrk.gitlab.io/invisalignsurrey/invisalign-surrey.html",
            "title": "Invisalign Surrey",
            "summary": "Invisalign Surrey What is the Invisalign system? The Invisalign system is the virtually invisible way to straighten your teeth and achieve the smile you've always wanted. The Invisalign system uses 3D computer imaging technology that allows you to see your entire treatment plan from your&hellip;",
            "content_html": "<h1>Invisalign Surrey</h1>\n<h2><img loading=\"lazy\" src=\"https://keppeladvanceddentistry.co.uk/wp-content/uploads/2020/02/invisalign-surrey-1.jpg\" data-is-external-image=\"true\"  alt=\"Invisalign Surrey\" width=\"80%\" height=\"auto\"></h2>\n<h2>What is the Invisalign system?</h2>\n<p>The Invisalign system is the virtually invisible way to straighten your teeth and achieve the smile you've always wanted. The Invisalign system uses 3D computer imaging technology that allows you to see your entire treatment plan from your initial teeth position to your final goal.</p>\n<p>A series of clear aligners is then custom-made to your teeth. These are used to gradually move your teeth. Each aligner is worn for about two weeks before being replaced by the next in the series until the final position of your teeth is achieved.</p>\n<p>Your Invisalign treatment time will be determined by your doctor based on your specific needs.</p>\n<h2>Invisalign Surrey: What is it?</h2>\n<p>Invisalign, a method that straightens teeth almost completely invisible and without the use of metal braces is clinically supported. As a professional Invisalign Surrey clinic, our qualified team will fit a series of clear, removable aligners gradually reposition teeth into a desired pattern, whilst being fully removable for eating and cleaning.</p>\n<p>How does it work? Based on a doctor's diagnosis, a series of aligners are custom made in the Invisalign laboratory using advanced computer imaging technology. Each aligner is worn for two weeks by patients until they are removed and replaced with the next one.</p>\n<h2><img loading=\"lazy\" src=\"https://www.bracelands.co.uk/croydon/wp-content/uploads/2019/09/croydon-orthodontic-practice-in-surrey-invisalign.jpg\" data-is-external-image=\"true\"  alt=\"Invisalign Surrey\" width=\"80%\" height=\"auto\"></h2>\n<h2>Length Of Invisalign Treatment</h2>\n<p>Invisalign treatment could take as little as six months to correct something simple. But often, treatment lasts 12-18 months (usually faster than with metal braces), especially when more than one tooth is involved or when a tooth is well out of alignment. Sometimes, the process can take even longer. Invisalign costs depend on the length of time it takes to fix your condition.</p>\n<p>The complexity of your job is a major factor in how long it takes. It could depend upon you. You are responsible for your jaw, gums and teeth. No two individuals are exactly the same. Some move easier than others, and some move easier in one direction than in another.</p>\n<p>Either way, the length of treatment will impact how much Invisalign costs you.</p>\n<p>With no visible braces, you can look natural throughout the teeth-straightening process. It won't even cost you more. It's a win-win situation for your teeth and your wallet.</p>\n<p>The price becomes even more affordable when considering the capable hands that will be working on your teeth. Two of the best dentists in Surrey and Metro Vancouver are Dr. San Bhatha, and Dr. Aman Dahaliwal.</p>\n<h2>Angel Care Dental Services</h2>\n<p>High quality orthodontics services at the Grandview Corners location of White Rock &amp; South Surrey are key to a healthy, functioning jaw and dazzling smile. Do you take great care of your teeth with proper brushing and flossing but still aren't completely satisfied with how your smile looks? Are you suffering from headaches or chronic migraines due to a misaligned bite? At Viva orthodontics, our Orthodontists and team of experts specialize in these areas and can create a treatment perfect for you.</p>\n<p>Every smile, set of teeth and situation is unique and that's why we offer so many great options for correcting alignment. These options include:</p>\n<p>Traditional Braces - Available with metal, clear and ceramic brackets for every budget. Clear and ceramic brackets can be more noticeable than metal braces.</p>\n<p>Lingual Braces: These braces are similar to traditional braces but placed on the back teeth in order to conceal the brackets. This is a strong and discreet option that can be hidden, but it's not the best for all problems.</p>\n<p>Invisalign and Invisalign Teen in South Surrey &amp; White Rock - An innovative tool that is removable, clear and plastic to be worn 20-22hrs per day, a comfortable and convenient option.</p>\n<p>Retainers - Great at correcting bite alignment by assisting the movement of gums and bone.</p>\n<p>Our technology, such as 3D radiography or computer-aided digital imaging, allows us to create custom orthodontic tools that are precise and will ensure your jaw alignment is correct the first time. We create a customized plan for each client by combining the expertise and knowledge of our experts and your specific needs. We guide you through the whole process, clearly communicating so there are no surprises or anxiety for you.</p>\n<p>We have a team of specialists waiting to help you look and feel your best with a great and healthy smile. Call us today to get your beautiful new smile.</p>\n<h2><img loading=\"lazy\" src=\"https://www.straightsmilecentres.com/files/invisalign-process-surrey-langley-delta-dentist.jpg\" data-is-external-image=\"true\"  alt=\"Invisalign Surrey\" width=\"80%\" height=\"auto\"></h2>\n<h2>Why Choose Us For Invisalign In Richmond?</h2>\n<p>Invisalign(r) and the Inman Aligner(tm) can straighten your teeth in as little as 4 months, at a fraction of the normal cost of braces. Adult clear braces might be the right choice for anyone who is interested in improving their smile.</p>\n<p>The consultation will begin with an Invisalign(r), which will assess you and discuss your goals. It will also show you where your teeth were at the beginning of treatment and help map the path to get there. After you review the plan with one our practitioners, you will be able to order Invisalign® aligners made specifically for you.</p>\n<p>Each clear, comfortable and removable aligner will be worn for approximately two weeks. Then you'll move on to the next one in your sequence. Each aligner is different so they can gradually move your teeth into the correct position. You will see us regularly during treatment - typically every two months. This allows us to monitor your progress, and give you your next set.</p>\n<p>For the correction of minor tooth movement, The Angel Care Dental also offers Invisalign(r) I7 and Invisalign(r) Lite. If you'd like to treat yourself to a healthier, more beautiful smile, book an appointment with us so we can discuss your needs and evaluate if Invisalign(r) is right for you.</p>\n<h2>Which are the Primary Benefits of Invisalign?</h2>\n<p>Clear Invisalign aligners make it easy to integrate Invisalign into your daily life and everyday interactions. You can also remove your Invisalign aligners. You can eat whatever you like during your treatment, and the aligners are removable. You can also remove the aligners to brush and floss as you normally would for fresh breath and good oral hygiene.</p>\n<p>Unlike traditional metal braces, Invisalign treatment does not use metal brackets or wires that could cause irritation to your mouth. You'll also spend less time at the dentist's office scheduling appointments and will be able to do the things that you enjoy.</p>\n<p>Finally, the Invisalign technology lets you view and preview your virtual treatment results before you begin your treatment. This allows you to see how your new straightening teeth will look after your treatment has completed.</p>\n<h2><img loading=\"lazy\" src=\"https://d2zp5xs5cp8zlg.cloudfront.net/image-42802-800.jpg\" data-is-external-image=\"true\"  alt=\"Invisalign Surrey\" width=\"80%\" height=\"auto\"></h2>\n<h2>How Does Invisalign Differ From Other Types Of Braces?</h2>\n<p>Invisalign clear braces can be removed, unlike traditional braces. We use software to make a series of bespoke aligners for you which are replaced every two or three weeks, as your teeth move closer to their new position.</p>\n<p>It's important that you wear the aligners consistently so they can work effectively. The fact that they are removable is convenient when you need to brush your teeth or eat, but you shouldn't be tempted to take them out for lengthy periods.</p>\n<p>The number of aligners you'll need depends on how much work needs to be done to arrive at a solution that's right for you. Once your treatment is finished you'll need to use a removable retainer to keep your teeth in the correct position.</p>\n<h2>3D</h2>\n<p>For treating overcrowded and unevenly spaced teeth, Invisalign can be a great option. It can also sometimes be used to correct your bite, so that the top and bottom teeth can meet.</p>\n<p>You change your aligners once a week. Each time this happens you may feel minor discomfort for a couple of days - this sensation is more usually described as a feeling of pressure, and it's a sign that Invisalign is working.</p>\n<p>The aligners slowly reposition the teeth over time. It all depends on how complex your case is and what you have agreed to do with us.</p>\n<p>Except when flossing, brushing your teeth or eating meals, the aligners can be worn all day. Being able to take them out makes all the difference if you want to look your best for important social events like weddings or a presentation at work. This allows you to avoid the self-consciousness associated with traditional braces.</p>\n<p>You can still enjoy the food you love. It's best to brush your teeth after each meal to maintain good oral hygiene before putting your aligners back in though.</p>\n<h2><img loading=\"lazy\" src=\"https://www.greenappledental.ca/wp-content/uploads/bfi_thumb/patient-b6-oatgig228e8ue2p1sf056y6pk3lh4omkh8fzti0el4.jpg\" data-is-external-image=\"true\"  alt=\"Invisalign Surrey\" width=\"80%\" height=\"auto\"></h2>\n<h2>Protection from insurance</h2>\n<p>Invisalign costs vary from province to province, and so do the insurance options. Here in Surrey, B.C. provincial health coverage does not cover teeth realignment. You will need to check your supplemental insurance to determine if your Invisalign costs are covered.</p>\n<p>Supplemental dental or supplemental healthcare insurance may cover you or part of your treatment. There is a chance you can get a large portion of your Invisalign costs back if you have access to a savings account for health care. We can often bill your insurance directly in such instances, so you don't need to worry about covering any portion of the cost. You will be responsible for paying us only for the percentage of treatment costs not covered by your dental insurance.</p>\n<p>If necessary, talk to us about a payment plan. We will do our best to align the billings to your cash flow as smoothly as we align your teeth with each other. This means that you will pay for your treatment monthly over the course of treatment. We use PayBright, an external partner to manage payment plans to pay over time.</p>\n<p>Treatment can be paid with a debit or credit card.</p>\n<h2>What Is The Treatment Process?</h2>\n<p>Invisalign treatment starts with a consultation with an Invisalign-trained doctor. Your Invisalign Doctor will evaluate your smile and then map out a precise, customised digital treatment plan that showcases the step-by-step transformation of your smile.</p>\n<p>Your unique alignments will be made once you have approved your plan. You will wear each set of aligners for 20 to 22 hours a day, changing to a new set of aligners every 1 to 2 weeks, as directed by your Invisalign Doctor. Your treatment plan will dictate how each set of aligners works to create a beautiful smile.</p>\n<h2><img loading=\"lazy\" src=\"https://www.healthysmilesdental.ca/wp-content/uploads/2021/05/IMG_3740.jpg\" data-is-external-image=\"true\"  alt=\"Invisalign Surrey\" width=\"80%\" height=\"auto\"></h2>\n<h2>What You Can Expect</h2>\n<p>Once we have received your aligners, we will set up an appointment to place them. We install transparent composite studs on your teeth as fasteners for the aligners during this first placement. Tooth slimming, also known as IPR, is sometimes required as part of your therapy to assist your teeth in shifting more quickly. If IPR is necessary, our Invisalign dentist near you uses a sandpaper-like substance to thin the tooth.</p>\n<p>It's simple and painless. You will learn how to insert and remove your retainers, as well how to clean them. We'll be seeing you for three more sets of aligners every six weeks after your first delivery.</p>\n<h2>How Does The Invisalign Process Work?</h2>\n<p>At your initial examination at our Angel Care Dental, our dentists will decide if Invisalign is right for you. If you are a good candidate for Invisalign, you will receive a detailed treatment plan (and Invisalign cost estimate).</p>\n<p>Your dentist will take impressions and photographs of your teeth and send these, with the treatment plan, to Align Technologies headquarters in San Jose. The 3-D computer technology transforms the instructions of your doctor into an array of aligners that are precisely tailored to you.</p>\n<p>You then wear each set of aligners for about two weeks, moving your teeth gradually - week by week, millimeter by millimeter - until you've achieved the intended result: straight teeth. Generally, you visit your doctor no more often than you would with braces and the length of treatment is about the same.</p>\n<h2><img loading=\"lazy\" src=\"https://www.surreybraces.co.uk/images/img3.png\" data-is-external-image=\"true\"  alt=\"Invisalign Surrey\" width=\"80%\" height=\"auto\"></h2>\n<h2>What is Invisalign?</h2>\n<p>Invisalign aligners are a set of custom-made clear aligners that can straighten your teeth like braces but look almost invisible. Invisalign is a low-profile option to traditional braces.</p>\n<p>Dr. Rosenczweig at Angel Care Dental is an experienced Invisalign provider. She can help you determine whether this innovative teeth straightening option could be right for you.</p>\n<p>Angel Care Dental , a Straight Smile Centers Member Practice, can help you get the smile that you want with Invisalign clear aligners.</p>\n<h2>Will Invisalign Treatment Fit My Lifestyle?</h2>\n<ul>\n<li>You have time for a quick snack. No problem. Take out your aligners to eat or drink whenever you want.</li>\n<li>Your Invisalign aligners can be removed so that you can clean and floss your teeth regularly.</li>\n<li>To enjoy an unforgettable night out, you can sometimes take off your Invisalign aligners.</li>\n<li>You don't have to do anything different. You can continue your daily activities and straighten your teeth while you do this.</li>\n<li>Invisalign aligners allow you to be yourself. Clear aligners mean you can show your smile during treatment.</li>\n<li>With Invisalign treatment, it's easy to make your smile picture-perfect for that special occasion.</li>\n<li>Your schedule can be accommodated by Invisalign appointments. Most visits are in and out, with a quick progress check once every six weeks.</li>\n</ul>\n<h2><img loading=\"lazy\" src=\"https://vivantdental.ca/wp-content/uploads/sites/72/2019/08/Invisalign.jpg.optimal.jpg.optimal.jpg\" data-is-external-image=\"true\"  alt=\"Invisalign Surrey\" width=\"80%\" height=\"auto\"></h2>\n<h2>Smile Design</h2>\n<p>Each patient will have varying requirements and treatment durations, so it is important we spend some time developing the perfect plan for you.</p>\n<p>We use 3D scanning technology and simulate the model to help us see our final result before we begin tooth movement.</p>\n<p>Dr. Patel will assess your teeth using photographs and 3D scans to design your smile. These are the features he will be looking at:</p>\n<ul>\n<li>Symmetry between your front and back teeth</li>\n<li>How straight your teeth are i.e. not overlapping, crooked or spaced too far apart</li>\n<li>Tooth ratio</li>\n<li>Colour of your teeth</li>\n<li>There should be space between your tips and your teeth</li>\n<li>Smile wide</li>\n<li>Gum health, gum line</li>\n<li>Lips can be shaped, coloured and full.</li>\n</ul>\n<h2>What Should I Bring To My Consultation With My Doctor?</h2>\n<p>Bring your questions (we've got a list to get you started here). Bring any relevant information about your past dental experiences.</p>\n<h2><img loading=\"lazy\" src=\"https://southsurreysmiles.com/wp-content/uploads/2019/04/is-invisalign-more-expensive-than-braces.jpg\" data-is-external-image=\"true\"  alt=\"Invisalign Surrey\" width=\"80%\" height=\"auto\"></h2>\n<h2>Complexity of Misalignment</h2>\n<p>There are many different types of dental work. Cost depends in part on your condition.</p>\n<p>Invisalign can be placed inside your mouth to create a small or large gap.</p>\n<p>There might be a few overcrowded ones, but your entire array may need to have spacing.</p>\n<p>You might have some teeth that are not aligned, or you might have several.</p>\n<p>One tooth might be far out of the row, or it might be just a little out of alignment.</p>\n<h2>Get the Invisalign FAQ Sheet</h2>\n<p>For answers to the questions our dentists are most commonly asked about Invisalign, download our Straight Smile Centres Invisalign FAQs sheet!</p>\n<p>Get the FAQ sheet</p>\n<h2><img loading=\"lazy\" src=\"https://www.surreybraces.co.uk/images/img3.png\" data-is-external-image=\"true\"  alt=\"Invisalign Surrey\" width=\"80%\" height=\"auto\"></h2>\n<h2>I don't want the treatment to go on for years, but I do not want it to be slow.</h2>\n<p>If you are suitable, the treatment can be completed in as little as 10 weeks, so it doesn't need to go on for years.</p>\n<h2>How Do I Get Started With Invisalign Treatment?</h2>\n<p>Our Angel Care Dental  Team can help you make an appointment with an Invisalign-trained Doctor near you. Our online locator will help you locate an Invisalign trained Doctor in your area.</p>\n<p>Many Invisalign Doctors offer free initial consultations. For the best experience, take the time to find the right Invisalign Doctor for you -- someone who makes you feel comfortable and has the experience you're looking for.</p>\n<h2><img loading=\"lazy\" src=\"https://dentistsofchimneyheights.com/assets/images/slider/slide-invisalign.jpg\" data-is-external-image=\"true\"  alt=\"Invisalign Surrey\" width=\"80%\" height=\"auto\"></h2>\n<h2>What Are The Advantages To Invisalign?</h2>\n<p>The advantages of Invisalign vs braces are two-fold. First, they are nearly invisible, giving your orthodontic treatment a more low-profile look. They are also removable so you can eat, brush, and floss as usual.</p>\n<h2>Step 4: Invisalign Makes Your Aligners</h2>\n<p>Invisalign uses advanced technology to transform your bite impressions into a custom made series of clear and removable aligners. Depending on the treatment plan, there may be up to 50 aligners in the set or just 7.</p>\n<h2><img loading=\"lazy\" src=\"https://www.southpointdental.ca/wp-content/uploads/2016/11/invisalign.jpg\" data-is-external-image=\"true\"  alt=\"Invisalign Surrey\" width=\"80%\" height=\"auto\"></h2>\n<h2>Step 6: Now, you need to wear your aligners</h2>\n<p>To ensure your treatment progresses as expected, you'll only visit your dentist about once every four to six weeks.</p>\n<h2>I Won'T Be Able To Afford Invisalign Braces</h2>\n<p>Finance is available so that payments can be spread out over time. This will suit your budget. These terms and conditions apply</p>\n<h2><img loading=\"lazy\" src=\"https://aura-ortho-eimbcvlgbknjdqeyx.netdna-ssl.com/wp-content/uploads/2021/02/dr-sharma-invisalign.jpg\" data-is-external-image=\"true\"  alt=\"Invisalign Surrey\" width=\"80%\" height=\"auto\"></h2>\n<h2>However, my teeth look so yellow!</h2>\n<p>With Invisalign, we offer free teeth whitening and so you get a dazzling white smile to go with your straight teeth. A complete smile makeover!</p>",
            "author": {
                "name": "Dentist"
            },
            "tags": [
            ],
            "date_published": "2022-06-24T08:09:14-07:00",
            "date_modified": "2022-06-28T09:52:39-07:00"
        }
    ]
}
